<?xml version="1.0" encoding="utf-8"?>
<!-- Generator: Adobe Illustrator 22.1.0, SVG Export Plug-In . SVG Version: 6.00 Build 0)  -->
<svg version="1.1" id="Camada_1" xmlns="http://www.w3.org/2000/svg" xmlns:xlink="http://www.w3.org/1999/xlink" x="0px" y="0px"
	 viewBox="0 0 64 80" style="enable-background:new 0 0 64 80;" xml:space="preserve">
<style type="text/css">
	.st0{fill:#534487;}
</style>
<g>
	<path class="st0" d="M25.1,35.2l0.6-0.5c0.4-0.4,0.5-1,0.1-1.4l-0.1-0.1l-0.6-0.5c-4-3.4-10-3.2-13.8,0.5c-0.4,0.4-0.4,1,0,1.4
		C15.1,38.4,21.1,38.7,25.1,35.2z M13.5,34c2.9-2.2,7-2.2,9.9,0C20.5,36.2,16.5,36.2,13.5,34z"/>
	<path class="st0" d="M7.3,51H5.6c-0.8,0-1.5-0.3-2.1-0.9l-1.4,1.4c1,1,2.2,1.5,3.5,1.5h1.7c2,0,3.7-1.6,3.7-3.7
		c0-1.2-0.5-2.2-1.5-2.9C7.9,45.2,7,43.3,7,41.3V33H5v8.3C5,44,6.2,46.4,8.3,48c0.7,0.6,0.9,1.6,0.3,2.3C8.4,50.8,7.9,51,7.3,51z"/>
	<path class="st0" d="M7.6,63.8l6-4c0.5-0.3,0.6-0.9,0.3-1.4c-0.1-0.2-0.3-0.4-0.6-0.4l-8-2c-0.3,0-0.5,0-0.7,0.1l-2,1l0.9,1.8
		l1.7-0.8l5.4,1.4L6.7,62H2v2h5C7.2,64,7.4,63.9,7.6,63.8z"/>
	<path class="st0" d="M42.1,18.6L36.3,33H32v-2.3C32,19.3,22.7,10,11.3,10H2v2h9.3C21.6,12,30,20.4,30,30.7V33h-2v2h2v7.1
		c0,2-0.3,4-0.8,5.9H13v2h15.5l-1.4,3.8c-0.5,1.5-1.2,2.9-2,4.2H16v2h7.7c-4.1,5.1-10.2,8-16.7,8H2v2h5c7.6,0,14.8-3.7,19.2-10h3.1
		l3.7,9.4c0.2,0.4,0.5,0.6,0.9,0.6h28v-2H34.7L31,58.6c-0.2-0.4-0.6-0.6-1-0.6h-2.6c0.6-1.1,1.2-2.3,1.6-3.5l1.6-4.5H62v-2H31.2
		c0.5-1.9,0.8-3.9,0.8-5.9V35h5c0.4,0,0.8-0.2,0.9-0.6L43.7,20H62v-2H43C42.6,18,42.2,18.2,42.1,18.6z"/>
	<rect x="54" y="14" class="st0" width="2" height="2"/>
	<rect x="58" y="14" class="st0" width="2" height="2"/>
	<rect x="50" y="14" class="st0" width="2" height="2"/>
	<rect x="46" y="14" class="st0" width="2" height="2"/>
	<rect x="42" y="14" class="st0" width="2" height="2"/>
	<rect x="50" y="44" class="st0" width="2" height="2"/>
	<rect x="54" y="44" class="st0" width="2" height="2"/>
	<rect x="46" y="44" class="st0" width="2" height="2"/>
	<rect x="58" y="44" class="st0" width="2" height="2"/>
	<rect x="54" y="64" class="st0" width="2" height="2"/>
	<rect x="58" y="64" class="st0" width="2" height="2"/>
	<rect x="46" y="64" class="st0" width="2" height="2"/>
	<rect x="42" y="64" class="st0" width="2" height="2"/>
	<rect x="50" y="64" class="st0" width="2" height="2"/>
</g>
</svg>
