<?xml version="1.0" encoding="utf-8"?>
<!-- Generator: Adobe Illustrator 22.1.0, SVG Export Plug-In . SVG Version: 6.00 Build 0)  -->
<svg version="1.1" id="Camada_1" xmlns="http://www.w3.org/2000/svg" xmlns:xlink="http://www.w3.org/1999/xlink" x="0px" y="0px"
	 viewBox="0 0 76 93" style="enable-background:new 0 0 76 93;" xml:space="preserve">
<style type="text/css">
	.st0{fill:#5662AD;}
</style>
<g>
	<g>
		<path class="st0" d="M38.8,9.5V2.8h-2.5v6.8C17.6,10.2,4.2,24.8,4.2,44.9c0,10.5,3.5,21.4,9.7,29.7c3.4,4.6,7.4,8.2,11.6,10.5v5.2
			H28v-4c2.7,1.1,5.5,1.8,8.3,1.9v2h2.5v-2c2.9-0.2,5.7-0.8,8.4-2v4h2.5V85c4.2-2.3,8.2-5.8,11.6-10.5c6.1-8.3,9.7-19.2,9.7-29.7
			C70.9,24.8,57.5,10.2,38.8,9.5z M38.8,18.6c4.5,0.5,19.5,3.1,26.1,18.4c-5.7-8.6-15.1-13.9-26.1-14.2
			C38.8,22.8,38.8,18.6,38.8,18.6z M67.7,37.3c-6.9-17.5-24.2-20.6-28.9-21.2V12C53.8,12.6,64.9,22.5,67.7,37.3z M36.3,12v10.7
			c-13.7,0.5-24.8,8.5-29.6,20.9C7.2,25.4,19.1,12.6,36.3,12z M7.2,51.6c2.4-15.4,14-25.8,29.1-26.4v47.1h-5.5v2.5h5.5v0.7h-3.1v2.5
			h3.1v7.6C22.3,84.8,9.8,69.7,7.2,51.6z M38.8,85.7v-7.6h2.9v-2.5h-2.9v-0.7H45v-2.5h-6.2V25.3c15.1,0.5,26.7,11,29.1,26.4
			C65.3,69.7,52.7,84.8,38.8,85.7z"/>
		<path class="st0" d="M32.6,48.1L34,46c-12.2-8.4-20.5,0.1-20.6,0.2l1.8,1.7C15.3,47.9,22.1,40.9,32.6,48.1z"/>
		<path class="st0" d="M41.8,46.2l1.8,1.7c0.1-0.1,6.9-7.1,17.4,0.2l1.4-2.1C50.2,37.6,41.9,46.1,41.8,46.2z"/>
		<path class="st0" d="M34,53.1l-1.1-0.9c-3.1-2.6-6.3-3.9-9.5-3.9c-5.4,0-8.8,3.9-8.9,4l-0.7,0.9l0.8,0.8c2.6,2.7,5.6,4.1,8.8,4.1
			c5.4,0,9.4-3.9,9.6-4.1L34,53.1z M23.3,53.9c-0.4,0-0.7-0.3-0.7-0.7s0.3-0.7,0.7-0.7s0.7,0.3,0.7,0.7S23.7,53.9,23.3,53.9z
			 M20.7,51.2c-0.4,0.5-0.6,1.2-0.6,1.9c0,0.8,0.3,1.5,0.8,2.1c-1.2-0.4-2.4-1.1-3.5-2.1C18,52.5,19.2,51.7,20.7,51.2z M25.7,55.3
			c0.5-0.6,0.9-1.3,0.9-2.2c0-0.8-0.3-1.5-0.7-2c1.4,0.4,2.9,1.1,4.3,2.1C29.1,53.9,27.6,54.8,25.7,55.3z"/>
		<path class="st0" d="M43,52.4l-0.8,0.8l0.7,0.9c0.1,0.2,3.5,4,8.9,4h0c3.2,0,6.3-1.3,9.5-3.9l1.1-0.9l-1-1
			c-0.2-0.2-4.2-4.1-9.6-4.1C48.6,48.3,45.6,49.7,43,52.4z M51.7,54c-0.4,0-0.7-0.3-0.7-0.7s0.3-0.7,0.7-0.7c0.4,0,0.7,0.3,0.7,0.7
			S52.1,54,51.7,54z M49.3,51.2c-0.5,0.6-0.8,1.3-0.8,2.1c0,0.7,0.2,1.4,0.6,1.9c-1.5-0.5-2.7-1.3-3.4-1.9
			C46.9,52.3,48,51.6,49.3,51.2z M54.2,55.3c0.5-0.6,0.7-1.3,0.7-2c0-0.8-0.3-1.6-0.9-2.2c1.9,0.5,3.4,1.4,4.4,2.1
			C57.1,54.3,55.6,54.9,54.2,55.3z"/>
		<path class="st0" d="M43.3,57l-2.5-0.2c0,0.4-0.6,9.7,5.8,13.3l1.2-2.2C42.8,65.1,43.3,57,43.3,57z"/>
		<path class="st0" d="M62.2,56c-5.6,6.3-15.4,3.9-15.5,3.9l-0.6,2.4c0.2,0.1,2.3,0.6,5.2,0.6c3.8,0,9-0.9,12.8-5.2L62.2,56z"/>
		<rect x="40.6" y="31.8" class="st0" width="6.6" height="2.5"/>
		<rect x="40.6" y="36.5" class="st0" width="17.6" height="2.5"/>
		<path class="st0" d="M48.7,73.6l1.1,2.3c0.3-0.1,6.4-3.1,10-8.7l-2.1-1.4C54.5,70.8,48.8,73.6,48.7,73.6z"/>
	</g>
</g>
</svg>
