<?xml version="1.0" encoding="utf-8"?>
<!-- Generator: Adobe Illustrator 22.1.0, SVG Export Plug-In . SVG Version: 6.00 Build 0)  -->
<svg version="1.1" id="Camada_1" xmlns="http://www.w3.org/2000/svg" xmlns:xlink="http://www.w3.org/1999/xlink" x="0px" y="0px"
	 viewBox="0 0 64 80" style="enable-background:new 0 0 64 80;" xml:space="preserve">
<style type="text/css">
	.st0{fill:#534487;}
</style>
<title>Mask, beauty, face mask</title>
<g>
	<g>
		<path class="st0" d="M7.6,37.2c0,0.6-0.5,1.1-1.1,1.1s-1.1-0.5-1.1-1.1S5.8,36,6.5,36S7.6,36.5,7.6,37.2z M6.5,17.9
			c0-0.6-0.5-1.1-1.1-1.1s-1.1,0.5-1.1,1.1s0.4,1.1,1,1.1S6.5,18.5,6.5,17.9z M7.2,27c-0.6,0.2-0.9,0.8-0.7,1.4
			c0.2,0.6,0.8,0.9,1.4,0.7c0.6-0.2,0.9-0.8,0.7-1.4l0,0C8.5,27.1,7.8,26.8,7.2,27z M49.6,16.7c0.6,0,1.1-0.5,1.1-1.1
			s-0.5-1.1-1.1-1.1s-1.1,0.5-1.1,1.1S49,16.7,49.6,16.7z M13.3,22.4c0.6,0,1.1-0.5,1.1-1.1s-0.5-1.1-1.1-1.1s-1.1,0.5-1.1,1.1
			S12.6,22.4,13.3,22.4z M14.4,14.5c0.6,0,1.1-0.5,1.1-1.1s-0.5-1.1-1.1-1.1s-1.1,0.5-1.1,1.1S13.8,14.5,14.4,14.5z M34,56.8
			c-2.1,2.1-5.4,2.1-7.5,0c-0.5-0.4-1.2-0.4-1.6,0.1c-0.4,0.4-0.4,1.1,0,1.5c2.9,3,7.7,3,10.7,0l0,0c0.4-0.5,0.4-1.2-0.1-1.6
			C35.1,56.4,34.5,56.4,34,56.8z M55.3,29.2c-0.6,0-1.1,0.5-1.1,1.1s0.5,1.1,1.1,1.1s1.1-0.5,1.1-1.1C56.4,29.7,55.9,29.2,55.3,29.2
			z M55.3,37.2c-0.6,0-1.1,0.5-1.1,1.1s0.5,1.1,1.1,1.1s1.1-0.5,1.1-1.1C56.4,37.7,55.9,37.2,55.3,37.2z M50.7,37.7
			c0,5.4-2.1,10.6-5.9,14.4l0,0c-1.3,8.9-7.3,15.7-14.5,15.7c-7.6,0-13.9-7.6-14.7-17.3l0,0c-3.1-3.5-4.7-8.1-4.6-12.8
			c0-7.2,3.5-13.3,8.4-15.5c2.1-6,6.2-10,10.9-10c4.1,0,7.7,3.1,10,7.8C46.8,23.5,50.7,30.4,50.7,37.7z M22.5,20.6
			c4.3-2.7,9.5-3.5,14.4-2.1c-1.8-2.6-4.1-4.1-6.6-4.1C27.2,14.5,24.4,16.9,22.5,20.6z M30.3,29.2c0.5,0,0.9,0,1.4,0.1
			c-1.9-3.5-4.8-5.8-8.2-5.8c-5.7,0-10.2,6.4-10.2,14.2c0,3.2,0.8,6.3,2.3,9c-0.1,0.6-0.1,1.2-0.1,1.8
			C15.5,37.9,22.1,29.2,30.3,29.2z M42.8,48.5c0-9.4-5.6-17-12.5-17s-12.5,7.6-12.5,17s5.6,17,12.5,17S42.8,57.9,42.8,48.5z
			 M48.4,37.7C48.4,28,41,20.1,32,20.1c-2.2,0-4.3,0.5-6.3,1.4c3.9,0.9,7.1,4.1,8.9,8.5c6,2.4,10.5,9.7,10.5,18.3
			C47.2,45.2,48.4,41.5,48.4,37.7z M34.5,46.7c-0.5-0.4-1.2-0.4-1.6,0.1c-0.4,0.4-0.4,1.1,0,1.5c1.8,1.8,4.8,1.8,6.6,0l0,0
			c0.4-0.5,0.4-1.2-0.1-1.6c-0.4-0.4-1.1-0.4-1.5,0C37,47.6,35.5,47.6,34.5,46.7z M27.7,46.6c-0.4-0.4-1.2-0.4-1.6,0
			c-0.9,0.9-2.5,0.9-3.4,0l0,0c-0.5-0.4-1.2-0.4-1.6,0.1c-0.4,0.4-0.4,1.1,0,1.5c1.8,1.8,4.8,1.8,6.6,0C28.1,47.7,28.1,47,27.7,46.6
			L27.7,46.6L27.7,46.6z M58.7,22.4c-0.6,0-1.1,0.5-1.1,1.1s0.5,1.1,1.1,1.1s1.1-0.5,1.1-1.1S59.3,22.4,58.7,22.4z M50.7,22.4
			c-0.6,0-1.1,0.5-1.1,1.1s0.5,1.1,1.1,1.1s1.1-0.5,1.1-1.1C51.9,22.9,51.4,22.4,50.7,22.4z"/>
	</g>
</g>
</svg>
